<?xml version="1.0" encoding="UTF-8"?>
<!DOCTYPE svg PUBLIC "-//W3C//DTD SVG 1.1//EN" "http://www.w3.org/Graphics/SVG/1.1/DTD/svg11.dtd">
<svg xmlns="http://www.w3.org/2000/svg" version="1.1" width="512px" height="512px" style="shape-rendering:geometricPrecision; text-rendering:geometricPrecision; image-rendering:optimizeQuality; fill-rule:evenodd; clip-rule:evenodd" xmlns:xlink="http://www.w3.org/1999/xlink">
<g><path style="opacity:0.979" fill="#D3D3D3" d="M 36.5,20.5 C 68.8351,20.3334 101.168,20.5 133.5,21C 143.963,24.7244 149.463,32.2244 150,43.5C 168.856,30.6578 189.69,23.1578 212.5,21C 256.833,20.3333 301.167,20.3333 345.5,21C 362.298,23.6478 376.465,31.1478 388,43.5C 420.668,93.494 452.335,144.161 483,195.5C 496.608,230.516 491.608,262.516 468,291.5C 453.671,306.582 436.171,315.749 415.5,319C 384.502,319.5 353.502,319.667 322.5,319.5C 326.827,354.115 330.827,388.782 334.5,423.5C 332.732,455.084 317.065,476.25 287.5,487C 248.978,495.408 221.478,481.908 205,446.5C 198.669,422.508 191.336,398.841 183,375.5C 172.985,352.959 159.152,333.125 141.5,316C 138.973,316.911 136.306,317.911 133.5,319C 100.833,319.667 68.1667,319.667 35.5,319C 27.6111,316.742 22.7778,311.575 21,303.5C 20.3333,214.5 20.3333,125.5 21,36.5C 23.685,28.6498 28.8517,23.3165 36.5,20.5 Z M 63.5,63.5 C 77.5,63.5 91.5,63.5 105.5,63.5C 105.5,134.5 105.5,205.5 105.5,276.5C 91.5,276.5 77.5,276.5 63.5,276.5C 63.5,205.5 63.5,134.5 63.5,63.5 Z M 225.5,63.5 C 262.168,63.3333 298.835,63.5 335.5,64C 345.156,64.4088 352.656,68.5755 358,76.5C 384.667,119.167 411.333,161.833 438,204.5C 447.738,219.764 449.071,235.764 442,252.5C 434.345,265.915 422.845,273.749 407.5,276C 369.167,276.333 330.833,276.667 292.5,277C 281.761,280.405 276.428,287.738 276.5,299C 281.249,340.324 285.915,381.657 290.5,423C 289.965,437.535 282.465,445.702 268,447.5C 259.32,446.814 252.654,442.814 248,435.5C 241.671,414.511 235.337,393.511 229,372.5C 212.916,329.599 186.749,294.265 150.5,266.5C 149.333,209.836 149.167,153.17 150,96.5C 162.298,87.5437 175.131,79.377 188.5,72C 200.501,67.0802 212.834,64.2469 225.5,63.5 Z"/></g>
</svg>
